<?xml version="1.0" encoding="utf-8"?>
<!-- Generator: Adobe Illustrator 16.0.0, SVG Export Plug-In . SVG Version: 6.00 Build 0)  -->
<!DOCTYPE svg PUBLIC "-//W3C//DTD SVG 1.1//EN" "http://www.w3.org/Graphics/SVG/1.1/DTD/svg11.dtd">
<svg version="1.1" id="Layer_1" xmlns="http://www.w3.org/2000/svg" xmlns:xlink="http://www.w3.org/1999/xlink" x="0px" y="0px"
	 width="566.928px" height="566.93px" viewBox="0 0 566.928 566.93" enable-background="new 0 0 566.928 566.93"
	 xml:space="preserve">
<g>
	<path d="M269.289,310.375c-0.332-1.412-0.613-2.916-0.8-4.374c-0.142-1.035-0.142-2.07-0.235-3.104c0-0.048-0.048-0.142-0.048-0.19
		c-0.233-0.798-0.233-1.598-0.233-2.397v-1.553c-0.094-1.551-0.285-3.15-0.285-4.703c0-0.047,0.096-0.329,0.096-0.424
		c0-2.728-0.096-5.503-0.235-8.231c0-0.14-0.048-0.235-0.048-0.375c-0.046-0.941-0.094-1.741-0.094-2.634v-1.035
		c-0.094-0.329-0.094-0.564-0.094-0.894l0.046-0.422c0.235-0.19,0.473-0.425,0.754-0.425c0.377,0,0.563,0.33,0.612,0.659v0.376
		c0,0.235,0.045,0.519,0.045,0.753c0.143,3.763,0.236,7.479,0.33,11.242c0.047,2.164,0.189,4.279,0.189,6.396l0.658,6.867
		c0.141,0.612,0.141,1.271,0.328,1.883c0.375-1.083,0.471-2.259,0.707-3.387c0.141-0.705,0.516-1.411,0.703-2.164
		c0.189-0.705,0.235-1.459,0.377-2.164c0-0.094,0.142-0.518,0.142-0.611c0.189-0.8,0.235-4.092,1.599-4.092
		c0.236,0,0.471,0.235,0.613,0.422c0.328,0.658,0.469,1.129,0.703,1.788l0.848,3.903c0.329,0.893,0.517,1.928,0.8,2.87
		c0.235,1.035,0.658,2.022,0.894,3.057c0.142-0.188,0.188-0.471,0.188-0.706c-0.046-0.046-0.094-0.141-0.094-0.188
		c0-0.941,0.188-1.834,0.328-2.776c0.049-0.47,0.097-0.94,0.097-1.41c0-0.471-0.048-0.941-0.048-1.412
		c0.471-2.257,0.564-4.469,0.941-6.726c0.094-0.423,0.326-0.8,0.422-1.269v-0.424c0.047-0.377,0.143-1.458,0.143-1.552l0.564-2.118
		c0.234-1.034,0.188-2.116,0.281-3.198c0-0.095,0.047-0.565,0.093-0.705c0-0.095,0.142-0.8,0.142-0.941
		c0.049-0.188,0.143-1.177,0.143-1.364c0.045-0.329,0.045-2.728,0.893-2.728h0.188l0.329-0.188c0.189,0.095,0.473,0.564,0.473,0.846
		c0,0.188-0.142,0.658-0.237,0.847c-0.188,0.753-0.094,1.411-0.235,2.117c-0.188,1.223-0.375,2.447-0.469,3.669v0.94
		c-0.048,0.611-0.187,0.705-0.377,1.27l-0.28,1.458c-0.283,0.282-0.19,1.646-0.283,1.975c-0.143,0.612-0.377,1.224-0.518,1.835
		l-0.096,0.941c-0.045,0.516-0.139,2.115-0.139,2.257c-0.094,0.799-0.423,1.599-0.471,2.399c0,0.142-0.096,1.128-0.096,1.458
		c0,0.941-0.188,1.787-0.33,2.681c-0.139,1.646-0.234,3.339-0.281,4.985v1.411l-0.187,0.612c-0.048,0.517-0.094,0.847-0.754,0.847
		c-0.235,0-0.471,0-0.61-0.235c-0.377-0.471-0.422-1.693-0.564-2.164c-0.611-2.728-1.412-5.268-2.166-7.902
		c-0.045-0.047-0.045-0.142-0.045-0.142l-0.752-3.057c-0.377,0.941-0.426,1.834-0.612,2.87c-0.094,0.471-0.423,1.175-0.564,1.551
		c-0.329,1.224-0.519,2.493-0.754,3.669c-0.14,0.751-0.375,1.411-0.468,2.116c-0.049,0.048-0.049,0.754-0.049,1.035
		c-0.045,0.424-0.188,0.8-0.281,1.224c-0.094,0.565-0.047,1.271-0.848,1.271c-0.234,0-0.609-0.188-0.703-0.376
		c0-0.095-0.096-0.612-0.096-0.659c-0.046-0.282-0.188-0.565-0.188-0.895V310.375z"/>
	<path d="M302.621,310.375c-0.332-1.412-0.613-2.916-0.8-4.374c-0.142-1.035-0.142-2.07-0.235-3.104c0-0.048-0.048-0.142-0.048-0.19
		c-0.233-0.798-0.233-1.598-0.233-2.397v-1.553c-0.094-1.551-0.283-3.15-0.283-4.703c0-0.047,0.094-0.329,0.094-0.424
		c0-2.728-0.094-5.503-0.235-8.231c0-0.14-0.048-0.235-0.048-0.375c-0.046-0.941-0.094-1.741-0.094-2.634v-1.035
		c-0.094-0.329-0.094-0.564-0.094-0.894l0.046-0.422c0.235-0.19,0.473-0.425,0.754-0.425c0.377,0,0.563,0.33,0.612,0.659v0.376
		c0,0.235,0.045,0.519,0.045,0.753c0.143,3.763,0.236,7.479,0.33,11.242c0.047,2.164,0.189,4.279,0.189,6.396l0.658,6.867
		c0.141,0.612,0.141,1.271,0.328,1.883c0.377-1.083,0.471-2.259,0.707-3.387c0.141-0.705,0.516-1.411,0.703-2.164
		c0.189-0.705,0.235-1.459,0.377-2.164c0-0.094,0.145-0.518,0.145-0.611c0.187-0.8,0.232-4.092,1.596-4.092
		c0.236,0,0.471,0.235,0.613,0.422c0.328,0.658,0.469,1.129,0.705,1.788l0.846,3.903c0.329,0.893,0.517,1.928,0.8,2.87
		c0.235,1.035,0.658,2.022,0.894,3.057c0.142-0.188,0.188-0.471,0.188-0.706c-0.046-0.046-0.094-0.141-0.094-0.188
		c0-0.941,0.188-1.834,0.331-2.776c0.046-0.47,0.094-0.94,0.094-1.41c0-0.471-0.048-0.941-0.048-1.412
		c0.471-2.257,0.564-4.469,0.941-6.726c0.094-0.423,0.326-0.8,0.422-1.269v-0.424c0.049-0.377,0.143-1.458,0.143-1.552l0.564-2.118
		c0.234-1.034,0.188-2.116,0.281-3.198c0-0.095,0.047-0.565,0.093-0.705c0-0.095,0.142-0.8,0.142-0.941
		c0.049-0.188,0.143-1.177,0.143-1.364c0.045-0.329,0.045-2.728,0.893-2.728h0.188l0.329-0.188c0.189,0.095,0.473,0.564,0.473,0.846
		c0,0.188-0.142,0.658-0.235,0.847c-0.189,0.753-0.096,1.411-0.237,2.117c-0.188,1.223-0.375,2.447-0.469,3.669v0.94
		c-0.048,0.611-0.187,0.705-0.377,1.27l-0.28,1.458c-0.283,0.282-0.19,1.646-0.283,1.975c-0.143,0.612-0.377,1.224-0.518,1.835
		l-0.096,0.941c-0.045,0.516-0.139,2.115-0.139,2.257c-0.094,0.799-0.423,1.599-0.471,2.399c0,0.142-0.094,1.128-0.094,1.458
		c0,0.941-0.189,1.787-0.332,2.681c-0.139,1.646-0.234,3.339-0.281,4.985v1.411l-0.187,0.612c-0.048,0.517-0.094,0.847-0.754,0.847
		c-0.235,0-0.471,0-0.61-0.235c-0.377-0.471-0.422-1.693-0.564-2.164c-0.611-2.728-1.412-5.268-2.166-7.902
		c-0.045-0.047-0.045-0.142-0.045-0.142l-0.752-3.057c-0.377,0.941-0.426,1.834-0.612,2.87c-0.094,0.471-0.423,1.175-0.564,1.551
		c-0.329,1.224-0.517,2.493-0.754,3.669c-0.14,0.751-0.375,1.411-0.468,2.116c-0.049,0.048-0.049,0.754-0.049,1.035
		c-0.045,0.424-0.188,0.8-0.281,1.224c-0.094,0.565-0.047,1.271-0.848,1.271c-0.234,0-0.609-0.188-0.703-0.376
		c0-0.095-0.096-0.612-0.096-0.659c-0.046-0.282-0.188-0.565-0.188-0.895V310.375z"/>
	<path d="M284.571,290.667c0.048-0.61,0-1.27,0.283-1.88l0.612-3.247l0.235-0.705c1.081-2.304,1.974-3.858,4.327-4.656
		c0.517-0.141,1.175-0.376,1.646-0.376c0.471,0.045,0.987,0.376,1.364,0.564c2.963,1.74,3.669,6.772,4.092,9.923
		c0,0.047,0,0.095-0.096,0.141c0,0.095,0,0.471-0.047,0.564c0,0.659,0.047,1.271,0.047,1.93v0.517c0,2.07-0.469,4.044-0.704,6.066
		c-0.423,2.447-0.8,4.94-1.412,7.433l-0.517,1.552c-0.139,0.518-0.331,0.94-0.564,1.411c-0.141,0.235-0.377,0.47-0.422,0.752
		l-1.084,1.13c-0.234,0.188-0.609,0.14-0.845,0.329h-0.519c-2.396,0-4.138-1.599-5.267-3.528c-0.235-0.424-0.283-0.989-0.473-1.458
		c-0.562-1.882-0.752-3.763-0.892-5.691c0-0.471-0.234-0.895-0.234-1.364l0.045-2.304c0-0.095-0.045-0.471-0.045-0.564
		C284.148,293.819,284.291,292.267,284.571,290.667z M289.698,310.61c0.471,0.188,0.894,0.423,1.458,0.423
		c1.035,0.048,2.166-3.15,2.398-4.139c0.329-1.411,0.564-2.728,0.803-4.092c0.094-0.659,0.422-1.317,0.516-1.975v-0.658
		c0.143-0.8,0.375-1.6,0.423-2.447c0-0.047,0.142-0.471,0.142-0.516c0-0.048,0.046-0.188,0.046-0.235
		c0-0.095-0.046-0.658-0.046-0.754c0.046-1.034,0.329-2.116,0.377-3.151c0-0.422-0.142-0.893-0.142-1.364v-1.364
		c-0.235-3.15-0.894-6.397-3.06-8.748c-0.516-0.235-0.984-0.564-1.6-0.564c-0.045,0-0.232,0.047-0.232,0.047
		c-2.73,1.271-3.527,2.917-4.233,5.738c0,0.048-0.048,0.235-0.048,0.235l-0.891,4.845c0,0.047-0.143,2.681-0.143,3.763v4.045
		c0.188,2.164,0.471,4.656,0.987,6.726C287.254,308.305,287.629,309.905,289.698,310.61z"/>
</g>
<path d="M245.722,274.215c1.483,2.819,1.931,6.326,2.167,9.344c0.439,5.625-0.351,11.264-1.22,16.809
	c-0.867,5.519-1.889,11.057-1.966,16.658c-0.143,10.165,6.098,22.717,17.781,21.933c5.365-0.36,9.692-6.654,12.811-10.198
	c8.333-9.468,16.818-10.548,28.18-6.122c12.912,5.029,23.885,9.72,34.445-2.308c18.104-20.622,1.943-54.619-20.525-63.471
	c-7.769-3.062-21.1-1.521-22.462,8.499c-1.134,8.346,10.8,8.378,15.624,6.027c1.375-0.669,0.173-2.717-1.2-2.048
	c-1.511,0.738-3.036,1.253-4.736,1.311c-5.198,0.176-9.683-5.337-5.075-9.514c1.762-1.6,4.01-2.37,6.239-3.014
	c5.993-1.734,12.812,1.412,17.77,4.437c10.408,6.354,17.714,18.901,19.007,30.799c1.357,12.508-3.411,27.932-16.359,32.292
	c-9.126,3.073-20.59-5.262-29.166-7.7c-6.241-1.772-12.926-0.645-17.871,3.676c-3.287,2.868-6.105,6.091-8.984,9.358
	c-9.711,11.022-19.891,2.055-22.475-7.779c-0.382-1.446-0.645-2.923-0.805-4.411c-0.576-5.318,0.167-10.667,1.062-15.905
	c0.906-5.287,2.011-10.571,2.207-15.947c0.096-2.647-0.036-5.308-0.527-7.912c-0.359-1.907-1.015-3.608-2.174-5.184
	c-0.52-0.709-0.93-1.065-1.674-1.492c-0.396-0.225-1.725-0.482-1.931-0.686C244.619,272.412,245.229,273.276,245.722,274.215z"/>
<g>
	<path d="M282.147,342.689c-0.631,0-1.224-0.105-1.784-0.316c-0.561-0.21-1.057-0.512-1.485-0.905
		c-0.431-0.394-0.771-0.898-1.023-1.515c-0.249-0.617-0.378-1.307-0.378-2.07c0-0.738,0.119-1.421,0.355-2.049
		c0.236-0.627,0.561-1.155,0.974-1.582c0.413-0.428,0.901-0.761,1.47-1c0.564-0.239,1.174-0.358,1.826-0.358
		c1.193,0,2.189,0.326,2.981,0.978l-0.493,0.847c-0.699-0.517-1.499-0.775-2.398-0.775c-0.677,0-1.275,0.172-1.797,0.518
		c-0.521,0.345-0.918,0.815-1.193,1.41c-0.277,0.595-0.414,1.262-0.414,1.999c0,1.15,0.319,2.067,0.952,2.748
		c0.638,0.682,1.46,1.022,2.466,1.022c0.957,0,1.849-0.312,2.682-0.938l0.418,0.99C284.398,342.356,283.345,342.689,282.147,342.689
		z"/>
	<path d="M291.205,342.689c-1.433,0-2.561-0.44-3.383-1.322c-0.822-0.882-1.233-2.071-1.233-3.569c0-0.968,0.181-1.82,0.542-2.556
		c0.363-0.736,0.896-1.311,1.599-1.726c0.704-0.414,1.533-0.622,2.489-0.622c1.393,0,2.503,0.45,3.33,1.352
		c0.828,0.901,1.242,2.085,1.242,3.552c0,1.493-0.409,2.682-1.227,3.565C293.749,342.248,292.63,342.689,291.205,342.689z
		 M291.191,341.64c1.059,0,1.865-0.341,2.416-1.025c0.551-0.684,0.827-1.623,0.827-2.816c0-1.168-0.276-2.103-0.829-2.803
		c-0.553-0.702-1.355-1.052-2.4-1.052c-1.043,0-1.851,0.353-2.426,1.058c-0.574,0.705-0.863,1.637-0.863,2.797
		c0,1.189,0.283,2.127,0.847,2.813C289.328,341.297,290.137,341.64,291.191,341.64z"/>
	<path d="M297.795,342.545v-9.48h1.322l4.572,6.667l0.702,1.107v-7.775h1.186v9.48h-1.329l-4.453-6.419l-0.834-1.302v7.722H297.795z
		"/>
	<path d="M308.203,342.545v-9.48h1.32l4.571,6.667l0.704,1.107v-7.775h1.186v9.48h-1.33l-4.453-6.419l-0.834-1.302v7.722H308.203z"
		/>
	<path d="M318.607,342.545v-9.48h5.678v1.048h-4.433v2.982h4.186v1.055h-4.186v3.348h4.622v1.047H318.607z"/>
	<path d="M330.499,342.689c-0.63,0-1.225-0.105-1.785-0.316c-0.562-0.21-1.055-0.512-1.484-0.905
		c-0.429-0.394-0.772-0.898-1.022-1.515c-0.252-0.617-0.378-1.307-0.378-2.07c0-0.738,0.118-1.421,0.355-2.049
		c0.236-0.627,0.562-1.155,0.974-1.582c0.412-0.428,0.902-0.761,1.467-1c0.566-0.239,1.176-0.358,1.826-0.358
		c1.195,0,2.189,0.326,2.984,0.978l-0.494,0.847c-0.7-0.517-1.5-0.775-2.396-0.775c-0.679,0-1.278,0.172-1.799,0.518
		c-0.522,0.345-0.918,0.815-1.194,1.41s-0.413,1.262-0.413,1.999c0,1.15,0.317,2.067,0.953,2.748
		c0.637,0.682,1.459,1.022,2.465,1.022c0.956,0,1.85-0.312,2.684-0.938l0.416,0.99C332.75,342.356,331.696,342.689,330.499,342.689z
		"/>
	<path d="M337.338,342.545v-8.433h-3.03v-1.048h7.319v1.048h-3.047v8.433H337.338z"/>
</g>
</svg>
